{
  "name": "brain-stt",
  "maum_submodules": [
    "libmaum"
  ],
  "production": {
    "ubuntu": {
      "os_name": "ubuntu",
      "os_version": "16.04",
      "pre_install": [
        "sudo dpkg -i cuda-repo-ubuntu1604_8.0.44-1_amd64.deb"
      ],
      "repositories": null,
      "os_packages": [
      ],
      "node_packages": [
      ],
      "python_packages": [
      ],
      "post_install": [
        "sudo ldconfig"
      ]
    },
    "centos": {
    }
  },
  "development": {
    "ubuntu": {
      "os_name": "ubuntu",
      "os_version": "16.04",
      "pre_install": [
        "sudo dpkg -i cuda-repo-ubuntu1604_8.0.44-1_amd64.deb"
      ],
      "repositories": [
      ],
      "os_packages": [
        "gcc-4.8",
        "g++-4.8",
        "make",
        "cmake",
        "python-pip",
        "python-dev",
        "libarchive13",
        "libarchive-dev",
        "libatlas-base-dev",
        "libatlas-dev",
        "cuda-core-8-0=8.0.61-1",
        "cuda-driver-dev-8-0=8.0.61-1",
        "cuda-nvrtc-dev-8-0=8.0.61-1",
        "cuda-nvgraph-dev-8-0=8.0.61-1",
        "cuda-cusolver-dev-8-0=8.0.61-1",
        "cuda-cublas-dev-8-0=8.0.61.1-1",
        "cuda-cufft-dev-8-0=8.0.61-1",
        "cuda-curand-dev-8-0=8.0.61-1",
        "cuda-cusparse-dev-8-0=8.0.61-1",
        "cuda-npp-dev-8-0=8.0.61-1",
        "cuda-cudart-dev-8-0=8.0.61-1",
        "ffmpeg"
      ],
      "node_packages": null,
      "python_packages": [
        "boto3",
        "grpcio==1.4.0",
        "requests",
        "numpy",
        "theano",
        "workerpool"
      ],
      "post_install": [
        "sudo ldconfig"
      ]
    },
    "centos": {
    }
  }
}
